<svg xmlns="http://www.w3.org/2000/svg" xml:space="preserve" width="3.25in" height="1.20833in" version="1.1" style="shape-rendering:geometricPrecision; text-rendering:geometricPrecision; image-rendering:optimizeQuality; fill-rule:evenodd; clip-rule:evenodd"
viewBox="0 0 3250 1208"
 xmlns:xlink="http://www.w3.org/1999/xlink">
 <defs>
  <style type="text/css">
   <![CDATA[
    .fil0 {fill:#282828;fill-rule:nonzero}
   ]]>
  </style>
 </defs>
 <g id="Layer_x0020_1">
  <metadata id="CorelCorpID_0Corel-Layer"/>
  <path class="fil0" d="M238 969l181 0c49,0 95,-9 137,-28 42,-18 78,-44 109,-77 31,-33 55,-71 72,-115 17,-44 26,-92 26,-142 0,-51 -9,-98 -26,-142 -17,-44 -41,-83 -72,-115 -31,-33 -67,-59 -109,-77 -42,-19 -88,-28 -137,-28l-181 0 0 725zm-238 239l0 -1206 419 0c90,0 170,15 242,44 72,29 133,71 183,124 51,53 90,117 117,191 28,74 41,156 41,245 0,85 -14,164 -41,237 -28,73 -67,136 -117,190 -51,54 -112,96 -183,127 -72,31 -152,46 -242,46l-419 0z"/>
  <polygon class="fil0" points="2650,-9 2650,1208 2413,1208 2413,430 1979,860 1547,430 1547,1208 1307,1208 1307,-9 1440,-9 1979,526 2520,-9 "/>
  <polygon class="fil0" points="3024,1208 3262,1208 3262,3 3024,3 "/>
 </g>
</svg>
